{"result":true,"data":[{"id":47933,"title":"Посторонний","kp_id":"56864","imdb_id":"tt0062310","world_art_id":null,"type":"movie","add":"2021-02-15 06:45:57","orig_title":"Lo straniero","year":"1967-09-06","translations":["Любительский (одноголосый закадровый) (Urasiko)"],"quality":"vhs","translation":"Любительский (одноголосый закадровый) (Urasiko)","update":"2021-02-15 07:50:02","iframe_src":"//8543.svetacdn.in/si4jsFRrtgrT/movie/47933"},{"id":47905,"title":"Ход конем","kp_id":"44781","imdb_id":"tt0130059","world_art_id":null,"type":"movie","add":"2021-02-14 16:02:16","orig_title":"Khod konyom","year":"1963-03-25","translations":["Оригинальная дорожка"],"quality":"dvdrip","translation":"Оригинальная дорожка","update":"2021-02-15 07:51:10","iframe_src":"//8543.svetacdn.in/si4jsFRrtgrT/movie/47905"},{"id":47869,"title":"Цветок зла","kp_id":"41909","imdb_id":"tt0322289","world_art_id":null,"type":"movie","add":"2021-02-12 06:34:53","orig_title":"La fleur du mal","year":"2003-02-09","translations":["Профессиональный (двухголосый закадровый)"],"quality":"bd","translation":"Профессиональный (двухголосый закадровый)","update":"2021-02-15 07:13:37","iframe_src":"//8543.svetacdn.in/si4jsFRrtgrT/movie/47869"},{"id":47868,"title":"Подозреваемый","kp_id":"16650","imdb_id":"tt0037330","world_art_id":null,"type":"movie","add":"2021-02-12 06:32:26","orig_title":"The Suspect","year":"1944-12-22","translations":["Авторский (одноголосый закадровый) (Есарев Дмитрий)"],"quality":"bd","translation":"Авторский (одноголосый закадровый) (Есарев Дмитрий)","update":"2021-02-15 07:10:55","iframe_src":"//8543.svetacdn.in/si4jsFRrtgrT/movie/47868"},{"id":47867,"title":"Еще один год","kp_id":"462848","imdb_id":"tt1431181","world_art_id":null,"type":"movie","add":"2021-02-12 06:27:08","orig_title":"Another Year","year":"2010-05-15","translations":["Профессиональный (многоголосый закадровый)"],"quality":"bd","translation":"Профессиональный (многоголосый закадровый)","update":"2021-02-15 07:09:32","iframe_src":"//8543.svetacdn.in/si4jsFRrtgrT/movie/47867"},{"id":47866,"title":"Мадзин атакует снова","kp_id":"146777","imdb_id":"tt0062852","world_art_id":null,"type":"movie","add":"2021-02-12 06:25:58","orig_title":"Daimajin gyakushû","year":"1966-12-21","translations":["Любительский (одноголосый закадровый) (Emslie)"],"quality":"bd","translation":"Любительский (одноголосый закадровый) (Emslie)","update":"2021-02-15 07:08:21","iframe_src":"//8543.svetacdn.in/si4jsFRrtgrT/movie/47866"},{"id":47864,"title":"Мадзин — каменный самурай","kp_id":"156716","imdb_id":"tt0062851","world_art_id":null,"type":"movie","add":"2021-02-12 06:23:35","orig_title":"Daimajin","year":"1966-04-17","translations":["Любительский (одноголосый закадровый) (Emslie)"],"quality":"bd","translation":"Любительский (одноголосый закадровый) (Emslie)","update":"2021-02-15 07:07:31","iframe_src":"//8543.svetacdn.in/si4jsFRrtgrT/movie/47864"},{"id":47862,"title":"Переступить черту","kp_id":"369871","imdb_id":"tt0265514","world_art_id":null,"type":"movie","add":"2021-02-11 19:28:05","orig_title":"Perestupit chertu","year":"1985-02-04","translations":["Оригинальная дорожка"],"quality":"sat","translation":"Оригинальная дорожка","update":"2021-02-15 07:49:59","iframe_src":"//8543.svetacdn.in/si4jsFRrtgrT/movie/47862"},{"id":47861,"title":"Парижская драма","kp_id":"42892","imdb_id":"tt0261150","world_art_id":null,"type":"movie","add":"2021-02-11 19:20:02","orig_title":"Parizhskaya drama","year":"1984-07-04","translations":["Оригинальная дорожка"],"quality":"vhs","translation":"Оригинальная дорожка","update":"2021-02-15 07:49:09","iframe_src":"//8543.svetacdn.in/si4jsFRrtgrT/movie/47861"},{"id":47860,"title":"Минувшие дни","kp_id":"46642","imdb_id":"tt0363820","world_art_id":null,"type":"movie","add":"2021-02-11 19:11:48","orig_title":"Minuvshie dni","year":"1969-05-11","translations":["Полное дублирование"],"quality":"tv","translation":"Полное дублирование","update":"2021-02-15 07:48:02","iframe_src":"//8543.svetacdn.in/si4jsFRrtgrT/movie/47860"},{"id":47859,"title":"Три сестры","kp_id":"42304","imdb_id":"tt0058686","world_art_id":null,"type":"movie","add":"2021-02-11 19:08:35","orig_title":"Tri sestry","year":"1964-12-20","translations":["Оригинальная дорожка"],"quality":"sat","translation":"Оригинальная дорожка","update":"2021-02-15 07:47:13","iframe_src":"//8543.svetacdn.in/si4jsFRrtgrT/movie/47859"},{"id":47854,"title":"Гибель во имя рождения","kp_id":"44499","imdb_id":"tt0189548","world_art_id":null,"type":"movie","add":"2021-02-11 18:56:11","orig_title":"Gibel vo imya rozhdeniya","year":"1988-01-01","translations":["Оригинальная дорожка"],"quality":"webdl","translation":"Оригинальная дорожка","update":"2021-02-15 07:45:18","iframe_src":"//8543.svetacdn.in/si4jsFRrtgrT/movie/47854"},{"id":47849,"title":"Операция «Безумная вечеринка»","kp_id":"11770","imdb_id":"tt0050805","world_art_id":null,"type":"movie","add":"2021-02-11 15:56:36","orig_title":"Operation Mad Ball","year":"1957-08-17","translations":["Любительский (одноголосый закадровый) (Бахурани)"],"quality":"bd","translation":"Любительский (одноголосый закадровый) (Бахурани)","update":"2021-02-15 07:12:13","iframe_src":"//8543.svetacdn.in/si4jsFRrtgrT/movie/47849"},{"id":47831,"title":"Притча о любви","kp_id":"469657","imdb_id":"tt2371425","world_art_id":null,"type":"movie","add":"2021-02-10 19:19:48","orig_title":"Pritcha o lyubvi","year":"1975-01-01","translations":["Оригинальная дорожка"],"quality":"webdl","translation":"Оригинальная дорожка","update":"2021-02-15 07:44:35","iframe_src":"//8543.svetacdn.in/si4jsFRrtgrT/movie/47831"},{"id":9583,"title":"Не беспокоить","kp_id":"1352764","imdb_id":"tt11800836","world_art_id":null,"type":"serial","add":"2020-12-24 12:14:06","orig_title":"Do Knot Disturb","year":"2019-07-26","translations":["Любительский (многоголосый закадровый) (ColdFilm)"],"seasons_count":2,"episodes_count":12,"episodes":6,"update":"2020-12-24 19:42:23","iframe_src":"//8543.svetacdn.in/si4jsFRrtgrT/tv-series/9583"},{"id":9553,"title":"Огонь любви","kp_id":"414994","imdb_id":"tt3949916","world_art_id":null,"type":"serial","add":"2020-12-18 21:46:51","orig_title":"Ogon lyubvi","year":"2008-01-08","translations":["Оригинальная дорожка"],"seasons_count":1,"episodes_count":142,"episodes":142,"update":"2020-12-23 20:34:16","iframe_src":"//8543.svetacdn.in/si4jsFRrtgrT/tv-series/9553"},{"id":9550,"title":"Милый дом","kp_id":"1331277","imdb_id":"tt11612120","world_art_id":null,"type":"serial","add":"2020-12-18 12:27:17","orig_title":"Seuwiteuhom","year":"2020-12-18","translations":["Любительский (многоголосый закадровый) (Ultradox)","Любительский (многоголосый закадровый) (ColdFilm)","Профессиональный (двухголосый закадровый) (IdeaFilm)"],"seasons_count":1,"episodes_count":10,"episodes":10,"update":"2020-12-23 15:26:22","iframe_src":"//8543.svetacdn.in/si4jsFRrtgrT/tv-series/9550"},{"id":9540,"title":"Призрак Элены","kp_id":"571286","imdb_id":"tt1730842","world_art_id":null,"type":"serial","add":"2020-12-16 09:44:35","orig_title":"El Fantasma de Elena","year":"2010-07-20","translations":["Профессиональный (многоголосый закадровый)"],"seasons_count":1,"episodes_count":117,"episodes":117,"update":"2020-12-23 19:53:18","iframe_src":"//8543.svetacdn.in/si4jsFRrtgrT/tv-series/9540"},{"id":9511,"title":"Лето нашей тайны","kp_id":"425827","imdb_id":"tt0140730","world_art_id":null,"type":"serial","add":"2020-12-09 21:03:01","orig_title":"Corpo Dourado","year":"1998-01-01","translations":["Профессиональный (многоголосый закадровый)"],"seasons_count":1,"episodes_count":113,"episodes":113,"update":"2020-12-23 19:19:24","iframe_src":"//8543.svetacdn.in/si4jsFRrtgrT/tv-series/9511"},{"id":9509,"title":"Совершенная красота","kp_id":"425938","imdb_id":"tt1233506","world_art_id":null,"type":"serial","add":"2020-12-09 20:56:39","orig_title":"Beleza Pura","year":"2008-02-18","translations":["Профессиональный (многоголосый закадровый)"],"seasons_count":1,"episodes_count":130,"episodes":130,"update":"2020-12-24 07:46:30","iframe_src":"//8543.svetacdn.in/si4jsFRrtgrT/tv-series/9509"},{"id":9481,"title":"Скажи что-нибудь хорошее","kp_id":"1171908","imdb_id":null,"world_art_id":null,"type":"serial","add":"2020-12-07 11:16:42","orig_title":"Скажи что-нибудь хорошее","year":"2020-12-07","translations":["Оригинальная дорожка"],"seasons_count":1,"episodes_count":16,"episodes":16,"update":"2020-12-23 08:18:05","iframe_src":"//8543.svetacdn.in/si4jsFRrtgrT/tv-series/9481"},{"id":9452,"title":"Эль Сид","kp_id":"1302234","imdb_id":"tt10689614","world_art_id":null,"type":"serial","add":"2020-12-02 20:55:33","orig_title":"El Cid","year":"2020-12-18","translations":["Любительский (многоголосый закадровый) (KerobTV)","Любительский (многоголосый закадровый) (ColdFilm)","Любительский (многоголосый закадровый) (Ultradox)","Профессиональный (двухголосый закадровый) (Gears Media)","Профессиональный (многоголосый закадровый) (IdeaFilm)","Профессиональный (многоголосый закадровый) (BaibaKo)"],"seasons_count":1,"episodes_count":5,"episodes":5,"update":"2020-12-23 18:42:06","iframe_src":"//8543.svetacdn.in/si4jsFRrtgrT/tv-series/9452"},{"id":9427,"title":"Идеальная семья","kp_id":"1344495","imdb_id":null,"world_art_id":null,"type":"serial","add":"2020-11-30 10:57:52","orig_title":"Идеальная семья","year":"2020-11-30","translations":["Оригинальная дорожка"],"seasons_count":1,"episodes_count":17,"episodes":17,"update":"2020-12-23 20:35:51","iframe_src":"//8543.svetacdn.in/si4jsFRrtgrT/tv-series/9427"},{"id":9367,"title":"Приключения Ти-Рекс","kp_id":"420832","imdb_id":"tt0243687","world_art_id":null,"type":"serial","add":"2020-11-23 18:32:37","orig_title":"The Adventures of T-Rex","year":"1992-09-09","translations":["Полное дублирование"],"seasons_count":1,"episodes_count":16,"episodes":16,"update":"2020-12-23 10:00:58","iframe_src":"//8543.svetacdn.in/si4jsFRrtgrT/tv-series/9367"},{"id":9363,"title":"Родком","kp_id":"1305924","imdb_id":null,"world_art_id":null,"type":"serial","add":"2020-11-23 09:45:17","orig_title":"Родком","year":"2020-11-23","translations":["Оригинальная дорожка"],"seasons_count":1,"episodes_count":21,"episodes":21,"update":"2020-12-24 18:14:23","iframe_src":"//8543.svetacdn.in/si4jsFRrtgrT/tv-series/9363"},{"id":9202,"title":"Псих","kp_id":"1311065","imdb_id":null,"world_art_id":null,"type":"serial","add":"2020-11-05 09:47:38","orig_title":"Псих","year":"2020-11-05","translations":["Оригинальная дорожка"],"seasons_count":1,"episodes_count":8,"episodes":8,"update":"2020-12-24 18:12:41","iframe_src":"//8543.svetacdn.in/si4jsFRrtgrT/tv-series/9202"},{"id":9018,"title":"Беспринципные","kp_id":"1355059","imdb_id":"tt12112298","world_art_id":null,"type":"serial","add":"2020-10-15 09:30:04","orig_title":"Besprintsipnye","year":"2020-10-15","translations":["Оригинальная дорожка"],"seasons_count":1,"episodes_count":8,"episodes":8,"update":"2020-12-23 16:59:20","iframe_src":"//8543.svetacdn.in/si4jsFRrtgrT/tv-series/9018"},{"id":5563,"title":"Просто Мария","kp_id":"103522","imdb_id":"tt0211866","world_art_id":null,"type":"serial","add":"2019-10-28 22:18:17","orig_title":"Simplemente María","year":"1989-10-16","translations":["Профессиональный (многоголосый закадровый)"],"seasons_count":1,"episodes_count":155,"episodes":155,"update":"2020-12-24 21:45:03","iframe_src":"//8543.svetacdn.in/si4jsFRrtgrT/tv-series/5563"},{"id":27006,"title":"Июльский дождь","kp_id":"42669","imdb_id":"tt0171408","world_art_id":null,"type":"movie","add":"2019-05-25 20:24:41","orig_title":"Iyulskiy dozhd","year":"1967-08-07","translations":["Оригинальная дорожка","Оригинальная дорожка"],"quality":"dvdrip","translation":"Оригинальная дорожка","update":"2021-02-15 07:46:27","iframe_src":"//8543.svetacdn.in/si4jsFRrtgrT/movie/27006"},{"id":3894,"title":"Шведанутая семейка","kp_id":null,"imdb_id":"tt5372890","world_art_id":null,"type":"serial","add":"2019-01-16 16:32:22","orig_title":"Bonusfamiljen","year":"2017-01-30","translations":["Профессиональный (двухголосый закадровый) (ViruseProject)"],"seasons_count":3,"episodes_count":30,"episodes":10,"update":"2020-12-23 18:41:05","iframe_src":"//8543.svetacdn.in/si4jsFRrtgrT/tv-series/3894"},{"id":20792,"title":"Рома","kp_id":"1008486","imdb_id":"tt6155172","world_art_id":null,"type":"movie","add":"2018-12-16 22:13:37","orig_title":"Roma","year":"2018-08-30","translations":["Любительский (многоголосый закадровый) (Синема УС)","Любительский (двухголосый закадровый) (LakeFilms)","Профессиональный (многоголосый закадровый) (HDrezka Studio)","Авторский (одноголосый закадровый) (Немахов Юрий)"],"quality":"webdl","translation":"Любительский (многоголосый закадровый) (Синема УС)","update":"2021-02-15 06:56:54","iframe_src":"//8543.svetacdn.in/si4jsFRrtgrT/movie/20792"},{"id":3533,"title":"Метод Комински","kp_id":"1112254","imdb_id":"tt7255502","world_art_id":null,"type":"serial","add":"2018-11-19 10:41:27","orig_title":"The Kominsky Method","year":"2018-11-16","translations":["Любительский (многоголосый закадровый) (ColdFilm)","Профессиональный (многоголосый закадровый) (LostFilm)","Профессиональный (многоголосый закадровый) (HDrezka Studio)","Профессиональный (многоголосый закадровый) (NewStudio)","Профессиональный (многоголосый закадровый) (АРК-ТВ Studio)"],"seasons_count":2,"episodes_count":16,"episodes":8,"update":"2020-12-23 19:41:05","iframe_src":"//8543.svetacdn.in/si4jsFRrtgrT/tv-series/3533"},{"id":3323,"title":"Муж на 100 дней","kp_id":"1112449","imdb_id":"tt8199972","world_art_id":null,"type":"serial","add":"2018-10-16 23:12:17","orig_title":"Baekilui nanggunnim","year":"2018-09-10","translations":["Любительский (многоголосый закадровый) (ColdFilm)","Любительский (двухголосый закадровый) (SoftBox)","Любительский (двухголосый закадровый) (KinoGolos)"],"seasons_count":1,"episodes_count":16,"episodes":16,"update":"2020-12-24 15:14:57","iframe_src":"//8543.svetacdn.in/si4jsFRrtgrT/tv-series/3323"},{"id":86,"title":"Мартиросян Official","kp_id":null,"imdb_id":null,"world_art_id":null,"type":"serial","add":"2018-04-08 14:00:19","orig_title":"Мартиросян Official","year":"2018-04-01","translations":["Оригинальная дорожка"],"seasons_count":1,"episodes_count":1,"episodes":1,"update":"2018-04-08 15:22:38","iframe_src":"//8543.svetacdn.in/si4jsFRrtgrT/show-tv-series/86"},{"id":84,"title":"Большой завтрак","kp_id":null,"imdb_id":null,"world_art_id":null,"type":"serial","add":"2018-03-27 14:11:55","orig_title":"Большой завтрак","year":"2018-03-12","translations":["Оригинальная дорожка"],"seasons_count":1,"episodes_count":6,"episodes":6,"update":"2018-03-28 13:52:09","iframe_src":"//8543.svetacdn.in/si4jsFRrtgrT/show-tv-series/84"},{"id":154,"title":"Кровь Триединства","kp_id":"256150","imdb_id":"tt0791163","world_art_id":"3576","type":"serial","add":"2018-03-21 12:23:49","orig_title":"トリニティ・ブラッド / Toriniti Buraddo","year":"2005-04-24","translations":[],"seasons_count":1,"episodes_count":1,"episodes":1,"update":null,"iframe_src":"//8543.svetacdn.in/si4jsFRrtgrT/anime-tv-series/154"},{"id":69,"title":"Мирами за сокровищами","kp_id":null,"imdb_id":null,"world_art_id":null,"type":"serial","add":"2018-03-19 17:55:12","orig_title":"Світами за скарбами","year":"2018-03-04","translations":["Оригинальная дорожка"],"seasons_count":1,"episodes_count":4,"episodes":4,"update":"2018-03-28 13:38:06","iframe_src":"//8543.svetacdn.in/si4jsFRrtgrT/show-tv-series/69"},{"id":57,"title":"Мятежники ледяного озера","kp_id":"880619","imdb_id":"tt3946492","world_art_id":null,"type":"serial","add":"2018-03-11 10:08:44","orig_title":"Ice Lake Rebels","year":"2014-07-27","translations":["Профессиональный (многоголосый закадровый) (Discovery)"],"seasons_count":1,"episodes_count":10,"episodes":10,"update":"2018-03-12 19:10:53","iframe_src":"//8543.svetacdn.in/si4jsFRrtgrT/show-tv-series/57"},{"id":53,"title":"Долины смерти","kp_id":"965831","imdb_id":"tt5350248","world_art_id":null,"type":"serial","add":"2018-02-25 11:44:10","orig_title":"Killing Fields","year":"2016-01-05","translations":["Профессиональный (многоголосый закадровый) (Discovery)"],"seasons_count":2,"episodes_count":15,"episodes":8,"update":"2018-03-16 10:46:09","iframe_src":"//8543.svetacdn.in/si4jsFRrtgrT/show-tv-series/53"},{"id":50,"title":"Легенда о золоте крокодилов","kp_id":null,"imdb_id":"tt6317528","world_art_id":null,"type":"serial","add":"2018-02-25 10:47:12","orig_title":"Legend of Croc Gold","year":"2016-11-23","translations":["Профессиональный (многоголосый закадровый) (Discovery)"],"seasons_count":1,"episodes_count":8,"episodes":8,"update":"2018-03-02 10:28:53","iframe_src":"//8543.svetacdn.in/si4jsFRrtgrT/show-tv-series/50"},{"id":49,"title":"Капитан Кук: Одержимость и открытия","kp_id":"843399","imdb_id":"tt0961114","world_art_id":null,"type":"serial","add":"2018-02-25 10:07:13","orig_title":"Captain Cook: Obsession and Discovery","year":"2007-10-28","translations":["Профессиональный (двухголосый закадровый) (Discovery)"],"seasons_count":1,"episodes_count":4,"episodes":4,"update":"2018-03-02 14:31:58","iframe_src":"//8543.svetacdn.in/si4jsFRrtgrT/show-tv-series/49"},{"id":46,"title":"Больше чем фокусы с Ди Эм Си","kp_id":"843751","imdb_id":"tt4138532","world_art_id":null,"type":"serial","add":"2018-02-25 09:15:09","orig_title":"Beyond Magic with DMC","year":"2014-11-06","translations":["Профессиональный (одноголосый закадровый)"],"seasons_count":1,"episodes_count":7,"episodes":7,"update":"2018-03-12 19:55:04","iframe_src":"//8543.svetacdn.in/si4jsFRrtgrT/show-tv-series/46"},{"id":41,"title":"Дьявольский каньон","kp_id":null,"imdb_id":"tt6938394","world_art_id":null,"type":"serial","add":"2018-02-18 23:37:34","orig_title":"Devil's Canyon","year":"2017-06-06","translations":["Профессиональный (одноголосый закадровый) (Discovery)"],"seasons_count":1,"episodes_count":6,"episodes":6,"update":"2018-02-25 17:47:17","iframe_src":"//8543.svetacdn.in/si4jsFRrtgrT/show-tv-series/41"},{"id":40,"title":"Бушкрафт: лесная лига","kp_id":null,"imdb_id":"tt7799008","world_art_id":null,"type":"serial","add":"2018-02-18 23:27:27","orig_title":"Bushcraft Build-Off","year":"2017-11-14","translations":["Профессиональный (двухголосый закадровый) (Discovery)"],"seasons_count":1,"episodes_count":6,"episodes":6,"update":"2018-03-02 14:51:17","iframe_src":"//8543.svetacdn.in/si4jsFRrtgrT/show-tv-series/40"},{"id":36,"title":"Конвой: Битва за Атлантику","kp_id":null,"imdb_id":"tt1868356","world_art_id":null,"type":"serial","add":"2018-02-18 22:13:38","orig_title":"Convoy: War for the Atlantic","year":"2009-01-01","translations":["Профессиональный (одноголосый закадровый)"],"seasons_count":1,"episodes_count":4,"episodes":4,"update":"2018-03-12 20:01:51","iframe_src":"//8543.svetacdn.in/si4jsFRrtgrT/show-tv-series/36"},{"id":33,"title":"Сокровище Купера","kp_id":null,"imdb_id":"tt6459410","world_art_id":null,"type":"serial","add":"2018-02-17 20:56:55","orig_title":"Cooper's Treasure","year":"2017-04-18","translations":["Профессиональный (двухголосый закадровый) (Discovery)"],"seasons_count":1,"episodes_count":8,"episodes":8,"update":"2018-03-02 14:44:47","iframe_src":"//8543.svetacdn.in/si4jsFRrtgrT/show-tv-series/33"},{"id":31,"title":"Боевые корабли","kp_id":null,"imdb_id":"tt7174736","world_art_id":null,"type":"serial","add":"2018-02-17 14:38:33","orig_title":"Combat Ships","year":"2017-06-20","translations":["Профессиональный (одноголосый закадровый)"],"seasons_count":1,"episodes_count":10,"episodes":10,"update":"2018-03-12 20:12:59","iframe_src":"//8543.svetacdn.in/si4jsFRrtgrT/show-tv-series/31"},{"id":29,"title":"Мозг с Дэвидом Иглменом","kp_id":"892251","imdb_id":"tt3923774","world_art_id":null,"type":"serial","add":"2018-02-17 13:02:39","orig_title":"The Brain with Dr. David Eagleman","year":"2015-10-01","translations":["Любительский (одноголосый закадровый) (Jimmy J.)"],"seasons_count":1,"episodes_count":6,"episodes":6,"update":"2018-03-16 14:04:55","iframe_src":"//8543.svetacdn.in/si4jsFRrtgrT/show-tv-series/29"},{"id":28,"title":"Спасатели-тяжеловесы","kp_id":null,"imdb_id":"tt6385418","world_art_id":null,"type":"serial","add":"2018-02-17 12:46:18","orig_title":"Heavy Rescue","year":"2017-01-03","translations":["Профессиональный (одноголосый закадровый) (Discovery)"],"seasons_count":1,"episodes_count":8,"episodes":8,"update":"2018-03-02 11:07:44","iframe_src":"//8543.svetacdn.in/si4jsFRrtgrT/show-tv-series/28"},{"id":26,"title":"Сражение с океаном","kp_id":null,"imdb_id":"tt5119992","world_art_id":null,"type":"serial","add":"2018-02-16 20:35:46","orig_title":"Pacific Warriors","year":"2015-10-23","translations":["Профессиональный (двухголосый закадровый) (Discovery)"],"seasons_count":1,"episodes_count":6,"episodes":6,"update":"2018-03-04 20:10:03","iframe_src":"//8543.svetacdn.in/si4jsFRrtgrT/show-tv-series/26"},{"id":25,"title":"Голубая планета 2","kp_id":"1073233","imdb_id":"tt6769208","world_art_id":null,"type":"serial","add":"2018-02-16 20:24:12","orig_title":"Blue Planet II","year":"2017-10-29","translations":["Любительский (многоголосый закадровый) (ColdFilm)"],"seasons_count":1,"episodes_count":7,"episodes":7,"update":"2018-03-02 10:04:48","iframe_src":"//8543.svetacdn.in/si4jsFRrtgrT/show-tv-series/25"},{"id":22,"title":"Охотники","kp_id":"957841","imdb_id":"tt5167198","world_art_id":null,"type":"serial","add":"2018-02-16 10:44:25","orig_title":"The Hunt","year":"2015-11-01","translations":["Профессиональный (двухголосый закадровый)"],"seasons_count":1,"episodes_count":7,"episodes":7,"update":"2018-04-20 11:20:52","iframe_src":"//8543.svetacdn.in/si4jsFRrtgrT/show-tv-series/22"},{"id":21,"title":"Широкий взгляд с Кэлом Пенном","kp_id":null,"imdb_id":"tt4622750","world_art_id":null,"type":"serial","add":"2018-02-16 10:31:35","orig_title":"The Big Picture with Kal Penn","year":"2015-03-30","translations":["Профессиональный (одноголосый закадровый)"],"seasons_count":1,"episodes_count":12,"episodes":12,"update":"2018-03-16 13:48:25","iframe_src":"//8543.svetacdn.in/si4jsFRrtgrT/show-tv-series/21"},{"id":2100,"title":"Курс биологии","kp_id":"1030256","imdb_id":"tt6461726","world_art_id":null,"type":"serial","add":"2018-02-15 20:41:15","orig_title":"A.P. Bio","year":"2018-02-01","translations":["Профессиональный (многоголосый закадровый) (BaibaKo)","Профессиональный (многоголосый закадровый) (Jaskier)","Профессиональный (многоголосый закадровый) (TVShows)","Профессиональный (многоголосый закадровый) (NewStudio)","Профессиональный (двухголосый закадровый) (Gears Media)","Профессиональный (двухголосый закадровый) (IdeaFilm)"],"seasons_count":3,"episodes_count":34,"episodes":8,"update":"2020-12-23 13:14:52","iframe_src":"//8543.svetacdn.in/si4jsFRrtgrT/tv-series/2100"},{"id":23,"title":"Грехи Кассяна","kp_id":"230302","imdb_id":"tt0235119","world_art_id":"7027","type":"serial","add":"2018-01-27 12:16:49","orig_title":"キャシャーンSins","year":"2008-10-02","translations":["Любительский (многоголосый закадровый) (AniFilm)"],"seasons_count":1,"episodes_count":24,"episodes":24,"update":"2018-01-29 08:00:39","iframe_src":"//8543.svetacdn.in/si4jsFRrtgrT/anime-tv-series/23"},{"id":17,"title":"Эльфийская песнь","kp_id":"256079","imdb_id":"tt0480489","world_art_id":"2746","type":"serial","add":"2018-01-24 23:40:47","orig_title":"エルフェンリート","year":"2004-07-25","translations":["Профессиональный (многоголосый закадровый) (MC Entertainment)","Любительский (многоголосый закадровый) (AniLibria.TV)"],"seasons_count":1,"episodes_count":14,"episodes":14,"update":"2018-01-29 10:14:48","iframe_src":"//8543.svetacdn.in/si4jsFRrtgrT/anime-tv-series/17"},{"id":15,"title":"7 самураев","kp_id":"230696","imdb_id":"tt0482424","world_art_id":"1830","type":"serial","add":"2018-01-24 23:27:48","orig_title":"サムライ7 / サムライセブン / サムライ７","year":"2004-06-12","translations":["Профессиональный (многоголосый закадровый) (MC Entertainment)"],"seasons_count":1,"episodes_count":26,"episodes":26,"update":"2018-01-29 09:37:23","iframe_src":"//8543.svetacdn.in/si4jsFRrtgrT/anime-tv-series/15"},{"id":8,"title":"Гуррен-Лаганн","kp_id":"452973","imdb_id":"tt0948103","world_art_id":"5959","type":"serial","add":"2018-01-23 22:04:16","orig_title":"天元突破グレンラガン","year":"2007-04-01","translations":["Полное дублирование"],"seasons_count":1,"episodes_count":27,"episodes":27,"update":"2018-01-27 13:19:37","iframe_src":"//8543.svetacdn.in/si4jsFRrtgrT/anime-tv-series/8"},{"id":7,"title":"Онихэй","kp_id":"1043651","imdb_id":"tt6494518","world_art_id":"8905","type":"serial","add":"2018-01-20 17:34:33","orig_title":"鬼平","year":"2017-01-08","translations":["Любительский (многоголосый закадровый) (AniDUB)"],"seasons_count":1,"episodes_count":13,"episodes":13,"update":"2018-01-23 19:48:04","iframe_src":"//8543.svetacdn.in/si4jsFRrtgrT/anime-tv-series/7"},{"id":1,"title":"Евангелион","kp_id":"182487","imdb_id":"tt0112159","world_art_id":"32","type":"serial","add":"2017-12-27 15:26:20","orig_title":"新世紀エヴァンゲリオン","year":"1995-10-04","translations":["Профессиональный (многоголосый закадровый) (MC Entertainment)"],"seasons_count":1,"episodes_count":26,"episodes":26,"update":"2018-01-12 11:10:58","iframe_src":"//8543.svetacdn.in/si4jsFRrtgrT/anime-tv-series/1"},{"id":1489,"title":"Новые приключения Винни Пуха","kp_id":"229817","imdb_id":"tt0165052","world_art_id":null,"type":"serial","add":"2017-08-26 05:51:23","orig_title":"The New Adventures of Winnie the Pooh","year":"1988-01-17","translations":["Полное дублирование","Полное дублирование (Нота)"],"seasons_count":4,"episodes_count":50,"episodes":8,"update":"2020-12-23 07:42:42","iframe_src":"//8543.svetacdn.in/si4jsFRrtgrT/tv-series/1489"},{"id":1224,"title":"Городской охотник","kp_id":"579473","imdb_id":"tt1982229","world_art_id":null,"type":"serial","add":"2017-04-27 13:03:16","orig_title":"Siti hyunteo","year":"2011-05-25","translations":["Профессиональный (многоголосый закадровый) (Kansai)","Любительский (двухголосый закадровый) (GREEN TEA)"],"seasons_count":1,"episodes_count":20,"episodes":20,"update":"2020-12-24 15:02:11","iframe_src":"//8543.svetacdn.in/si4jsFRrtgrT/tv-series/1224"},{"id":9000,"title":"Школа воров 2","kp_id":"103387","imdb_id":"tt0203092","world_art_id":null,"type":"movie","add":"2017-01-17 12:30:38","orig_title":"Scuola di ladri - Parte seconda","year":"1987-09-22","translations":["Профессиональный (многоголосый закадровый)","Любительский (одноголосый закадровый)"],"quality":"hdtv","translation":"Профессиональный (многоголосый закадровый)","update":"2021-02-15 07:04:36","iframe_src":"//8543.svetacdn.in/si4jsFRrtgrT/movie/9000"},{"id":8999,"title":"Школа воров","kp_id":"64876","imdb_id":"tt0091911","world_art_id":null,"type":"movie","add":"2017-01-17 12:26:17","orig_title":"Scuola di ladri","year":"1986-10-07","translations":["Профессиональный (многоголосый закадровый)","Любительский (одноголосый закадровый)","Профессиональный (многоголосый закадровый) (Позитив)"],"quality":"hdtv","translation":"Профессиональный (многоголосый закадровый)","update":"2021-02-15 07:02:32","iframe_src":"//8543.svetacdn.in/si4jsFRrtgrT/movie/8999"},{"id":4546,"title":"Жажда","kp_id":"871998","imdb_id":"tt3955808","world_art_id":null,"type":"movie","add":"2016-08-19 06:28:58","orig_title":"Thirst","year":"2016-08-02","translations":["Любительский (одноголосый закадровый)","Любительский (одноголосый закадровый) (Хихикающий доктор)"],"quality":"webdl","translation":"Любительский (одноголосый закадровый)","update":"2021-02-15 06:59:02","iframe_src":"//8543.svetacdn.in/si4jsFRrtgrT/movie/4546"},{"id":299,"title":"Убийца","kp_id":"817324","imdb_id":"tt3397884","world_art_id":null,"type":"movie","add":"2016-03-19 11:01:55","orig_title":"Sicario","year":"2015-05-19","translations":["Полное дублирование","Авторский (одноголосый закадровый) (Гоблин | Пучков Дмитрий)"],"quality":"bd","translation":"Полное дублирование","update":"2021-02-15 07:52:24","iframe_src":"//8543.svetacdn.in/si4jsFRrtgrT/movie/299"}],"current_page":45,"first_page_url":"https://videocdn.tv/api/short?limit=100&api_token=X6EwAUfE5M9xbo7y0Bp0aPf3uXxG2KLL&cache245=245&page=1","from":4401,"last_page":596,"last_page_url":"https://videocdn.tv/api/short?limit=100&api_token=X6EwAUfE5M9xbo7y0Bp0aPf3uXxG2KLL&cache245=245&page=596","next_page_url":"https://videocdn.tv/api/short?limit=100&api_token=X6EwAUfE5M9xbo7y0Bp0aPf3uXxG2KLL&cache245=245&page=46","path":"https://videocdn.tv/api/short","per_page":100,"prev_page_url":"https://videocdn.tv/api/short?limit=100&api_token=X6EwAUfE5M9xbo7y0Bp0aPf3uXxG2KLL&cache245=245&page=44","to":4466,"total":59525}